<?xml version="1.0" standalone="no"?>
<!DOCTYPE svg PUBLIC "-//W3C//DTD SVG 20010904//EN"
 "http://www.w3.org/TR/2001/REC-SVG-20010904/DTD/svg10.dtd">
<svg version="1.0" xmlns="http://www.w3.org/2000/svg"
 width="700.000000pt" height="700.000000pt" viewBox="0 0 700.000000 700.000000"
 preserveAspectRatio="xMidYMid meet">
<metadata>
Created by potrace 1.11, written by Peter Selinger 2001-2013
</metadata>
<g transform="translate(0.000000,700.000000) scale(0.100000,-0.100000)"
fill="#000000" stroke="none">
<path d="M1007 6992 c-10 -16 -7 -1933 3 -1951 5 -10 33 -32 62 -49 29 -16
178 -102 332 -191 153 -89 283 -161 290 -161 8 0 11 157 11 603 0 331 2 619 5
640 l5 38 159 -91 c87 -49 161 -90 162 -90 2 0 25 -13 51 -28 27 -16 110 -63
185 -106 76 -42 143 -87 150 -99 9 -17 11 -171 9 -644 -1 -343 1 -623 4 -623
4 0 157 82 341 182 199 107 340 190 346 202 13 23 17 1100 5 1148 -7 28 -32
48 -112 93 -81 44 -433 244 -523 297 -45 26 -85 48 -87 48 -3 0 -34 18 -70 40
-36 22 -67 40 -70 40 -3 0 -34 18 -70 40 -36 22 -67 40 -70 40 -3 0 -34 18
-70 40 -36 22 -67 40 -69 40 -2 0 -111 61 -242 136 -132 76 -259 148 -284 162
-25 14 -121 69 -215 122 -210 120 -233 132 -238 122z"/>
<path d="M5925 6951 c-27 -15 -205 -117 -395 -226 -190 -109 -363 -208 -385
-220 -358 -203 -1254 -719 -1264 -730 -13 -13 -15 -400 -18 -2885 -2 -1579 -1
-2874 2 -2880 6 -10 -1 -13 395 215 412 237 1581 907 1615 925 76 42 96 57
109 85 13 26 14 249 12 1591 -3 1420 -4 1562 -19 1585 -9 14 -51 45 -94 69
-43 24 -186 106 -318 183 -132 76 -252 141 -267 144 -29 6 -42 0 -173 -77
-157 -92 -258 -150 -261 -150 -2 0 -65 -37 -140 -81 -99 -59 -133 -84 -123
-90 8 -5 160 -93 337 -196 192 -111 330 -197 340 -211 15 -23 16 -138 14
-1279 -1 -771 -6 -1262 -12 -1273 -5 -9 -103 -71 -217 -137 -114 -66 -253
-146 -308 -178 -145 -85 -174 -99 -181 -92 -12 12 -12 4414 0 4438 12 24 652
396 696 405 l25 6 0 -506 c0 -278 2 -512 5 -521 5 -13 16 -10 70 18 73 38 322
168 480 251 58 30 113 65 123 78 16 22 17 74 16 858 -1 893 -1 910 -9 910 -3
0 -27 -13 -55 -29z"/>
<path d="M2268 4126 c-79 -46 -232 -134 -340 -197 -155 -89 -195 -116 -185
-126 10 -10 186 -114 352 -208 231 -131 293 -169 313 -191 l23 -26 -1 -1164
c-1 -640 -3 -1164 -6 -1164 -6 0 -84 43 -244 135 -69 39 -196 111 -283 160
-91 50 -165 98 -175 113 -15 23 -16 124 -17 1173 l0 1149 -25 24 c-26 25 -650
386 -667 386 -7 0 -10 -507 -10 -1480 l0 -1480 51 -29 c106 -60 428 -242 606
-343 102 -58 203 -116 225 -128 22 -12 69 -39 105 -60 36 -21 88 -50 115 -65
28 -16 163 -92 300 -170 138 -78 277 -157 310 -175 33 -18 93 -53 133 -77 41
-24 75 -43 77 -43 2 0 28 -14 57 -31 92 -55 137 -79 146 -79 5 0 8 788 8 1879
l-1 1880 -23 24 c-12 13 -39 33 -60 44 -20 11 -69 39 -109 61 -39 23 -87 50
-105 60 -18 11 -100 59 -183 107 -173 102 -197 115 -224 120 -12 2 -77 -29
-163 -79z"/>
</g>
</svg>
