<?xml version="1.0" encoding="UTF-8"?>
<svg width="6px" height="10px" viewBox="0 0 6 10" version="1.1" xmlns="http://www.w3.org/2000/svg" xmlns:xlink="http://www.w3.org/1999/xlink">
    <!-- Generator: Sketch 61 (89581) - https://sketch.com -->
    <title>Stroke 1 Copy</title>
    <desc>Created with Sketch.</desc>
    <g id="Page-1" stroke="none" stroke-width="1" fill="none" fill-rule="evenodd">
        <polygon id="Stroke-1-Copy" fill="#C78043" fill-rule="nonzero" points="0 1.34228178 1.34295024 0 6 4.65936901 1.34278315 9.31658586 0.000167095954 7.97396981 3.31463254 4.65820936"></polygon>
    </g>
</svg>